accounts.firefox.com:HSTS	1	18521	1631796492937,1,1,2
askubuntu.com:HSTS	0	18512	1602039997302,1,0,2
snippets.cdn.mozilla.net:HSTS	2	18522	1631870638128,1,0,2
wac-cdn.atlassian.com:HSTS	0	18522	1663419368795,1,0,2
pr.ybp.yahoo.com:HSTS	0	18512	1630984003521,1,0,2
cdnjs.cloudflare.com:HSTS	1	18520	1615934404591,1,1,2
graph.facebook.com:HSTS	0	18524	1616052740704,1,0,2
www.google.com^firstPartyDomain=google-b-d.search.suggestions.mozilla:HSTS	4	18524	1632047729361,1,0,2
firefox.settings.services.mozilla.com:HSTS	5	18524	1632047744080,1,0,2
stats.g.doubleclick.net:HSTS	4	18524	1611387469345,1,1,2
www.mozilla.org:HSTS	1	18521	1631796358064,1,0,2
www.facebook.com:HSTS	2	18521	1631796585349,1,1,2
incoming.telemetry.mozilla.org:HSTS	6	18524	1616272635999,1,0,2
stackoverflow.com:HSTS	1	18524	1603095466596,1,0,2
aus5.mozilla.org:HSTS	4	18524	1632027498646,1,0,2
services.addons.mozilla.org:HSTS	4	18524	1632027498110,1,0,2
auth.atlassian.com:HSTS	0	18520	1663226098995,1,0,2
api-private.atlassian.com:HSTS	2	18522	1915707685461,1,1,2
api.bitbucket.org:HSTS	2	18522	1631883686978,1,1,2
atlassian.net:HSTS	1	18522	1915707395873,1,1,2
id.atlassian.com:HSTS	1	18522	1663419393236,1,0,2
web-security-reports.services.atlassian.com:HSTS	3	18523	1663473077843,1,0,2
mozilla.org:HSTS	0	18512	1630983823052,1,0,2
bqlf8qjztdtr.statuspage.io:HSTS	2	18522	1600608844865,1,0,2
cdn.jsdelivr.net:HSTS	0	18520	1631690404467,1,1,2
fonts.googleapis.com:HSTS	2	18524	1632032115888,1,0,2
shavar.services.mozilla.com^firstPartyDomain=safebrowsing.86868755-6b82-4842-b301-72671a0db32e.mozilla:HSTS	6	18524	1632047848315,1,1,2
connect.facebook.net:HSTS	2	18521	1631796583543,1,1,2
beap-bc.yahoo.com:HSTS	0	18512	1615000026013,1,0,2
analytics.twitter.com:HSTS	0	18512	2230586842177,1,0,2
analytics.atlassian.com:HSTS	0	18522	1663419539372,1,0,2
ogs.google.com:HSTS	1	18524	1632028689899,1,0,2
api.atlassian.com:HSTS	3	18523	1915761077031,1,1,2
bytebucket.org:HSTS	3	18524	1631883633782,1,1,2
location.services.mozilla.com:HSTS	3	18522	1631883350248,1,1,2
www.google.com:HSTS	4	18524	1632032051283,1,0,2
bitbucket.org:HSTS	3	18524	1631883686486,1,1,2
normandy.cdn.mozilla.net:HSTS	5	18524	1632048857789,1,0,2
sentry.io:HSTS	1	18522	1631871767715,1,1,2
s.yimg.com:HSTS	0	18512	1615000000441,1,0,2
www.googletagmanager.com:HSTS	2	18521	1631796582335,1,1,2
www.google-analytics.com:HSTS	4	18524	1611382465653,1,1,2
