Looking for git in: git
Using git 2.25.1 from git
> git rev-parse --git-dir
Open repository: /home/wdc/Documents/lab04-react-task-list/lab04-react-task-list
> git status -z -u
> git symbolic-ref --short HEAD
> git rev-parse master
> git rev-parse --symbolic-full-name master@{u}
> git rev-list --left-right master...refs/remotes/origin/master
> git for-each-ref --sort -committerdate --format %(refname) %(objectname)
> git remote --verbose
> git check-ignore -v -z --stdin
Warning: Failed to watch ref '/home/wdc/Documents/lab04-react-task-list/lab04-react-task-list/.git/refs/remotes/origin/master', is most likely packed.
> git config --get commit.template
> git show --textconv :docker-compose.yml
> git ls-files --stage -- /home/wdc/Documents/lab04-react-task-list/lab04-react-task-list/docker-compose.yml
> git cat-file -s 2ec5e616f8640e90035c741d5be8ee240cd1725f
> git log --format=%H%n%aN%n%aE%n%at%n%ct%n%P%n%B -z -n21 -- /home/wdc/Documents/lab04-react-task-list/lab04-react-task-list/docker-compose.yml
> git status -z -u
> git symbolic-ref --short HEAD
> git rev-parse master
> git rev-parse --symbolic-full-name master@{u}
> git rev-list --left-right master...refs/remotes/origin/master
> git for-each-ref --sort -committerdate --format %(refname) %(objectname)
> git remote --verbose
Warning: Failed to watch ref '/home/wdc/Documents/lab04-react-task-list/lab04-react-task-list/.git/refs/remotes/origin/master', is most likely packed.
> git config --get commit.template
> git show --textconv :Dockerfile
> git ls-files --stage -- /home/wdc/Documents/lab04-react-task-list/lab04-react-task-list/Dockerfile
> git cat-file -s 71d9b7c7324d1e3ebcf712435cbd13a673125a24
